[
  {
    "qProperty": {
      "qInfo": {
        "qId": "e97a1638-ae85-4c4c-a792-7e736aa795b4",
        "qType": "appprops"
      },
      "qMetaDef": {
        "isBlueprintItem": true
      },
      "sheetTitleBgColor": "",
      "sheetTitleGradientColor": "",
      "sheetTitleColor": "",
      "sheetLogoThumbnail": {
        "qStaticContentUrlDef": {}
      },
      "sheetLogoPosition": "",
      "rtl": false,
      "theme": "Norsk Tipping"
    },
    "qChildren": []
  }
]