[
  {
    "qInfo": {
      "qId": "7e919c09-895f-464b-9af2-fe19381b11e7",
      "qType": "variable"
    },
    "qMetaDef": {
      "isBlueprintItem": true
    },
    "qName": "vDateFromWK",
    "qNumberPresentation": {
      "qType": "U",
      "qnDec": 10,
      "qUseThou": 0
    },
    "qDefinition": "7200",
    "qIsScriptCreated": true
  }
]